<svg width="22" height="22" viewBox="0 0 22 22" fill="none" xmlns="http://www.w3.org/2000/svg">
    <path d="M11 0.949341C5.02696 0.949341 0 5.04929 0 10.3197C0 13.2464 1.57876 15.9628 4.26572 17.7319L2.504 19.8459C2.04703 20.3942 2.57026 21.2159 3.26507 21.0215L8.73293 19.4909C15.4559 20.6888 22 16.3747 22 10.3197C22 5.04835 16.9719 0.949341 11 0.949341ZM8.8379 18.0187C8.72618 17.9972 8.61102 18.002 8.50145 18.0326L5.14005 18.9736L5.93875 18.0152C6.23339 17.6615 6.13293 17.1262 5.7298 16.9037C3.06041 15.4301 1.4667 12.9688 1.4667 10.3197C1.4667 5.96156 5.74333 2.41599 11 2.41599C16.2568 2.41599 20.5334 5.96156 20.5334 10.3197C20.5333 15.4315 14.7708 19.1616 8.8379 18.0187Z"
          fill="#A3A3A3"/>
</svg>
