<svg width="22" height="22" viewBox="0 0 22 22" fill="none" xmlns="http://www.w3.org/2000/svg">
<path d="M12.7387 14.422C12.2007 14.0466 11.6259 13.7408 11.0246 13.5071C11.8244 12.7801 12.355 11.7616 12.4473 10.6215C13.6602 9.43951 15.25 8.79154 16.9543 8.79154C18.2849 8.79154 19.5624 9.19224 20.649 9.95016C21.0384 10.2218 21.5738 10.1264 21.8454 9.73697C22.1168 9.34768 22.0215 8.81202 21.6322 8.54058C21.0943 8.16523 20.5193 7.85954 19.918 7.6257C20.8006 6.82346 21.3555 5.66669 21.3555 4.38284C21.3555 1.96606 19.3896 0 16.9731 0C14.5568 0 12.591 1.96606 12.591 4.38284C12.591 5.66149 13.1414 6.81406 14.0179 7.61597C13.8979 7.66213 13.7785 7.71098 13.6603 7.76302C13.1226 7.99971 12.617 8.29079 12.1469 8.63257C11.4985 7.02155 9.91987 5.88139 8.07977 5.88139C5.66344 5.88139 3.69745 7.84745 3.69745 10.2641C3.69745 11.5392 4.24479 12.6886 5.11659 13.4901C2.7857 14.3636 0.895741 16.2395 0.12633 18.6319C-0.128798 19.4253 0.00631885 20.2666 0.497104 20.9403C0.987889 21.6137 1.74723 22 2.58042 22H10.0562C10.5307 22 10.9154 21.6152 10.9154 21.1405C10.9154 20.666 10.5307 20.2812 10.0562 20.2812H2.58042C2.30264 20.2812 2.04952 20.1525 1.88587 19.9278C1.72222 19.7032 1.67724 19.4227 1.76217 19.1582C2.61147 16.5173 5.20169 14.6729 8.06097 14.6729C9.39132 14.6729 10.669 15.0736 11.7556 15.8316C12.1449 16.1032 12.6805 16.0076 12.952 15.6184C13.2234 15.2291 13.1281 14.6934 12.7387 14.422V14.422ZM16.9731 1.71879C18.442 1.71879 19.6369 2.91384 19.6369 4.38284C19.6369 5.85168 18.442 7.0469 16.9731 7.0469C15.5045 7.0469 14.3094 5.85168 14.3094 4.38284C14.3094 2.91384 15.5045 1.71879 16.9731 1.71879ZM8.07977 7.60002C9.5486 7.60002 10.7435 8.79523 10.7435 10.2641C10.7435 11.7331 9.5486 12.9281 8.07977 12.9281C6.61094 12.9281 5.41603 11.7331 5.41603 10.2641C5.41603 8.79523 6.61094 7.60002 8.07977 7.60002V7.60002ZM22 17.918C22 18.3925 21.6153 18.7773 21.1406 18.7773H18.7777V21.1405C18.7777 21.6152 18.393 22 17.9185 22C17.4438 22 17.0591 21.6152 17.0591 21.1405V18.7773H14.6961C14.2216 18.7773 13.8369 18.3925 13.8369 17.918C13.8369 17.4432 14.2216 17.0585 14.6961 17.0585H17.0591V14.6953C17.0591 14.2207 17.4438 13.8359 17.9185 13.8359C18.393 13.8359 18.7777 14.2207 18.7777 14.6953V17.0585H21.1406C21.6153 17.0585 22 17.4432 22 17.918V17.918Z" fill="#A3A3A3"/>
</svg>
