<svg width="21" height="21" viewBox="0 0 21 21" fill="none" xmlns="http://www.w3.org/2000/svg">
<path d="M5.03068 19.3158C6.63774 20.2828 8.47523 20.7925 10.3632 20.7925C16.0842 20.7925 20.8 16.1242 20.8 10.3962C20.8 4.67489 16.0908 0 10.3632 0C4.65299 0 0.00745851 4.66378 0.00745851 10.3962C0.00745851 12.3094 0.517334 14.1608 1.48424 15.7692L0 20.8L5.03068 19.3158ZM1.22589 10.3962C1.22589 5.33552 5.32489 1.21827 10.3632 1.21827C15.4462 1.21827 19.5817 5.33552 19.5817 10.3962C19.5817 15.457 15.4462 19.5741 10.3632 19.5741C8.61409 19.5741 6.91434 19.0787 5.44819 18.1411L5.21396 17.9915L1.80194 18.9982L2.80852 15.586L2.65887 15.352C1.72133 13.8855 1.22589 12.1719 1.22589 10.3962Z" fill="white"/>
<path d="M5.06314 8.48076C5.26436 9.53749 5.86168 11.57 7.60078 13.3091C9.33988 15.0482 11.3724 15.6457 12.4293 15.8469C13.6395 16.0773 15.4154 16.1121 16.2833 15.2442L16.7671 14.7603C17.0113 14.5161 17.1459 14.1913 17.1459 13.8458C17.1459 13.5003 17.0113 13.1756 16.7671 12.9314L14.8322 10.9965C14.5878 10.7521 14.2631 10.6177 13.9176 10.6177C13.5722 10.6177 13.2475 10.7521 13.0031 10.9965L12.5194 11.4802C12.2239 11.7757 11.6661 11.7769 11.3684 11.4838L9.43842 9.4729C9.43557 9.46988 9.43271 9.46687 9.4297 9.46401C9.13374 9.16805 9.13374 8.68642 9.4297 8.39046L9.91339 7.90677C10.419 7.40118 10.419 6.58313 9.91339 6.07769L7.97846 4.14277C7.4743 3.63861 6.65387 3.63861 6.14954 4.14277L5.66585 4.62662V4.62646C4.97316 5.31931 4.74227 6.79609 5.06314 8.48076ZM6.52739 5.48816C7.0352 4.99193 7.00806 4.98241 7.06408 4.98241C7.08328 4.98241 7.10249 4.98971 7.11709 5.00431C9.15595 7.05412 9.07407 6.93368 9.07407 6.99239C9.07407 7.01286 9.06661 7.0308 9.05217 7.0454L8.56832 7.52909C7.79787 8.29953 7.79486 9.54669 8.5634 10.3206L10.4945 12.3328C10.4975 12.3357 10.5004 12.3387 10.5034 12.3417C11.2737 13.112 12.6081 13.1145 13.381 12.3417L13.8646 11.858C13.8938 11.8288 13.9415 11.8288 13.9707 11.858C16.0095 13.9077 15.9276 13.7872 15.9276 13.846C15.9276 13.8666 15.9202 13.8844 15.9057 13.899L15.4219 14.3827C15.0904 14.7142 14.0344 14.9125 12.6572 14.6502C11.738 14.475 9.97067 13.9561 8.46231 12.4477C6.95395 10.9394 6.43503 9.17202 6.25999 8.25288C5.99752 6.8756 6.19588 5.8195 6.52739 5.48816Z" fill="white"/>
</svg>
