<svg width="22" height="23" viewBox="0 0 22 23" fill="none" xmlns="http://www.w3.org/2000/svg">
<path d="M4.60378 13.6481C5.05483 13.1784 5.59888 12.9273 6.17548 12.9273C6.74743 12.9273 7.29613 13.1738 7.76579 13.6434L9.23519 15.1082C9.35609 15.0431 9.47699 14.9826 9.59324 14.9222C9.76064 14.8385 9.91874 14.7594 10.0536 14.6757C11.43 13.8015 12.6808 12.6623 13.8805 11.1882C14.4618 10.4535 14.8524 9.83508 15.1361 9.20733C14.7548 8.85858 14.4013 8.49588 14.0572 8.14713C13.927 8.01693 13.7968 7.88208 13.6666 7.75188C12.6901 6.77537 12.6901 5.51057 13.6666 4.53407L14.9361 3.26462C15.0803 3.12047 15.2291 2.97167 15.3686 2.82287C15.6476 2.53457 15.9405 2.23697 16.2428 1.95797C16.6938 1.51156 17.2332 1.27441 17.8005 1.27441C18.3678 1.27441 18.9165 1.51156 19.3815 1.95797C19.3862 1.96262 19.3862 1.96262 19.3908 1.96727L20.9718 3.56222C21.567 4.15742 21.9065 4.88282 21.9809 5.72447C22.0925 7.08228 21.6926 8.34708 21.3857 9.17478C20.6324 11.2068 19.5071 13.0901 17.8284 15.1082C15.7917 17.5401 13.3411 19.4606 10.5418 20.8138C9.47234 21.3206 8.04479 21.9205 6.44983 22.0228C6.35218 22.0274 6.24988 22.0321 6.15688 22.0321C5.08273 22.0321 4.18063 21.6461 3.47383 20.8789C3.46918 20.8696 3.45988 20.8649 3.45523 20.8556C3.21343 20.5627 2.93443 20.2976 2.64148 20.014C2.44152 19.8233 2.23692 19.6234 2.03697 19.4141C1.57662 18.9352 1.33482 18.3771 1.33482 17.8052C1.33482 17.2286 1.58127 16.6752 2.05092 16.2102L4.60378 13.6481ZM2.93908 18.5445C2.94373 18.5445 2.94373 18.5492 2.93908 18.5445C3.12043 18.7399 3.30643 18.9166 3.50638 19.1119C3.80863 19.4002 4.11553 19.7024 4.40383 20.0419C4.87348 20.5441 5.42683 20.7812 6.15223 20.7812C6.22198 20.7812 6.29638 20.7812 6.36613 20.7766C7.74719 20.6882 9.03059 20.1488 9.99314 19.6885C12.625 18.4144 14.9361 16.6055 16.8566 14.313C18.4422 12.4019 19.5024 10.6349 20.2046 8.73768C20.637 7.57983 20.7951 6.67773 20.7254 5.82677C20.6789 5.28272 20.4696 4.83167 20.0837 4.44572L18.498 2.86007C18.2702 2.64617 18.0284 2.52992 17.7912 2.52992C17.4983 2.52992 17.2611 2.70662 17.1123 2.85542C17.1077 2.86007 17.103 2.86472 17.0984 2.86937C16.8147 3.13442 16.545 3.40877 16.2614 3.70172C16.1172 3.85052 15.9684 3.99932 15.8196 4.15277L14.5502 5.42222C14.0572 5.91512 14.0572 6.37082 14.5502 6.86373C14.685 6.99858 14.8152 7.13343 14.9501 7.26363C15.3407 7.66353 15.7127 8.03553 16.1172 8.39823C16.1265 8.40753 16.1358 8.41218 16.1405 8.42148C16.5404 8.82138 16.466 9.21198 16.3823 9.47703C16.3776 9.49098 16.373 9.50493 16.3683 9.51888C16.0382 10.3187 15.5732 11.072 14.8664 11.9694L14.8617 11.9741C13.5783 13.5551 12.2251 14.7873 10.7325 15.7313C10.5418 15.8522 10.3465 15.9498 10.1605 16.0428C9.99314 16.1265 9.83504 16.2056 9.70019 16.2893C9.68159 16.2986 9.66299 16.3125 9.64439 16.3218C9.48629 16.4009 9.33749 16.4381 9.18404 16.4381C8.79809 16.4381 8.55629 16.1963 8.47724 16.1172L6.88693 14.5269C6.72883 14.3688 6.47773 14.1782 6.18478 14.1782C5.89648 14.1782 5.65933 14.3595 5.51518 14.5176C5.51053 14.5223 5.51053 14.5223 5.50588 14.5269L2.94373 17.0891C2.46478 17.5634 2.46478 18.0516 2.93908 18.5445Z" fill="#757575"/>
<path d="M10.1093 5.24079C8.89096 5.44539 7.78426 6.02199 6.90076 6.90549C6.01726 7.78899 5.44531 8.8957 5.23606 10.114C5.18491 10.4209 4.91986 10.6348 4.61761 10.6348C4.58041 10.6348 4.54786 10.6302 4.51066 10.6255C4.16656 10.5697 3.93871 10.2442 3.99451 9.9001C4.24561 8.42605 4.94311 7.08219 6.00796 6.01734C7.07281 4.95249 8.41666 4.25499 9.89071 4.00389C10.2348 3.94809 10.5557 4.17594 10.6161 4.51539C10.6766 4.85484 10.4534 5.18499 10.1093 5.24079Z" fill="#757575"/>
<path d="M0.00987148 9.71879C0.423722 7.29149 1.56763 5.08273 3.32533 3.32503C5.08303 1.56732 7.29179 0.423421 9.71909 0.00957041C10.0585 -0.0508797 10.3794 0.181621 10.4398 0.521071C10.4956 0.865172 10.2678 1.18602 9.92369 1.24647C7.75679 1.61382 5.78053 2.64148 4.20883 4.20853C2.63713 5.78023 1.61413 7.75649 1.24677 9.92339C1.19562 10.2303 0.930574 10.4442 0.628324 10.4442C0.591124 10.4442 0.558573 10.4395 0.521373 10.4349C0.181922 10.3837 -0.0505781 10.0582 0.00987148 9.71879Z" fill="#757575"/>
</svg>
