<svg width="22" height="21" viewBox="0 0 22 21" fill="none" xmlns="http://www.w3.org/2000/svg">
<path d="M3.22266 21H10.3984V13.5352H7.82031V11.0742H10.3984V7.99805C10.3984 6.30183 11.8441 4.92188 13.6211 4.92188H16.8438V7.38281H14.2656C13.5548 7.38281 12.9766 7.93476 12.9766 8.61328V11.0742H16.7274L16.2977 13.5352H12.9766V21H18.7773C20.5543 21 22 19.62 22 17.9238V3.07617C22 1.37995 20.5543 0 18.7773 0H3.22266C1.44566 0 0 1.37995 0 3.07617V17.9238C0 19.62 1.44566 21 3.22266 21ZM1.28906 3.07617C1.28906 2.05847 2.15649 1.23047 3.22266 1.23047H18.7773C19.8435 1.23047 20.7109 2.05847 20.7109 3.07617V17.9238C20.7109 18.9415 19.8435 19.7695 18.7773 19.7695H14.2656V14.7656H17.3898L18.2491 9.84375H14.2656V8.61328H18.1328V3.69141H13.6211C11.1333 3.69141 9.10938 5.62331 9.10938 7.99805V9.84375H6.53125V14.7656H9.10938V19.7695H3.22266C2.15649 19.7695 1.28906 18.9415 1.28906 17.9238V3.07617Z" fill="#FF8B00"/>
</svg>
