<svg width="23" height="18" viewBox="0 0 23 18" fill="none" xmlns="http://www.w3.org/2000/svg">
<path d="M14.7432 7.87029L9.89051 5.2151C9.61148 5.06243 9.28168 5.06813 9.00818 5.23018C8.73452 5.3924 8.57129 5.67897 8.57129 5.99704V11.2618C8.57129 11.5784 8.73351 11.8645 9.00533 12.0269C9.14727 12.1117 9.30463 12.1542 9.46233 12.1542C9.60679 12.1542 9.75158 12.1185 9.88481 12.0468L14.7377 9.43737C15.0258 9.28235 15.2056 8.98288 15.2069 8.65559C15.2081 8.3283 15.0305 8.02749 14.7432 7.87029ZM9.8585 10.5996V6.6647L13.4853 8.64922L9.8585 10.5996Z" fill="#FF8800"/>
<path d="M22.1833 4.46106L22.1823 4.45101C22.1637 4.27421 21.9785 2.70161 21.214 1.90173C20.3303 0.960922 19.3285 0.846631 18.8467 0.791831C18.8068 0.787307 18.7703 0.783117 18.7376 0.77876L18.6992 0.774738C15.7953 0.563583 11.4099 0.534759 11.366 0.534591L11.3621 0.534424L11.3583 0.534591C11.3143 0.534759 6.92887 0.563583 3.99885 0.774738L3.96014 0.77876C3.92897 0.782949 3.89461 0.786804 3.85724 0.791161C3.38097 0.846128 2.38989 0.960587 1.50371 1.93542C0.775561 2.72674 0.565076 4.26566 0.543458 4.4386L0.540944 4.46106C0.534409 4.53463 0.379395 6.28604 0.379395 8.04432V9.68797C0.379395 11.4463 0.534409 13.1977 0.540944 13.2714L0.542118 13.2825C0.560719 13.4564 0.745731 15.0002 1.50672 15.8004C2.3376 16.7097 3.38818 16.83 3.95327 16.8947C4.04259 16.9049 4.11951 16.9136 4.17196 16.9229L4.22274 16.9299C5.89941 17.0894 11.1563 17.168 11.3792 17.1712L11.3859 17.1714L11.3926 17.1712C11.4365 17.1711 15.8218 17.1422 18.7257 16.9311L18.7641 16.9271C18.8008 16.9222 18.842 16.9178 18.8873 16.9131C19.3608 16.8629 20.3466 16.7585 21.2205 15.7969C21.9487 15.0054 22.1593 13.4665 22.1808 13.2937L22.1833 13.2712C22.1898 13.1975 22.345 11.4463 22.345 9.68797V8.04432C22.3448 6.28604 22.1898 4.5348 22.1833 4.46106ZM21.0576 9.68797C21.0576 11.3154 20.9155 12.9914 20.9021 13.1452C20.8475 13.569 20.6254 14.5427 20.2707 14.9283C19.7237 15.5301 19.1618 15.5897 18.7515 15.6331C18.7019 15.6383 18.656 15.6434 18.6144 15.6486C15.8057 15.8517 11.5858 15.8828 11.3914 15.884C11.1734 15.8808 5.99342 15.8016 4.36787 15.6506C4.28458 15.637 4.19459 15.6266 4.09974 15.6159C3.6186 15.5608 2.96 15.4853 2.45357 14.9283L2.44167 14.9156C2.0931 14.5524 1.87742 13.6419 1.82262 13.1502C1.8124 13.0339 1.6666 11.3382 1.6666 9.68797V8.04432C1.6666 6.41876 1.80837 4.74461 1.82212 4.58759C1.88731 4.08836 2.11354 3.17369 2.45357 2.804C3.01732 2.18394 3.61173 2.11523 4.00488 2.06982C4.04242 2.06546 4.07745 2.06144 4.10979 2.05725C6.95937 1.85313 11.2096 1.8228 11.3621 1.82163C11.5146 1.82263 15.7633 1.85313 18.5876 2.05725C18.6223 2.06161 18.6602 2.06596 18.7009 2.07066C19.1053 2.11674 19.7165 2.18646 20.2774 2.78473L20.2825 2.79026C20.6311 3.15341 20.8468 4.07981 20.9016 4.58139C20.9113 4.69115 21.0576 6.39061 21.0576 8.04432V9.68797Z" fill="#FF8800"/>
</svg>
